{
    "cordova-plugin-contacts": {
        "source": {
            "type": "registry",
            "id": "cordova-plugin-contacts"
        },
        "is_top_level": true,
        "variables": {}
    },
    "cordova-plugin-device": {
        "source": {
            "type": "registry",
            "id": "cordova-plugin-device"
        },
        "is_top_level": true,
        "variables": {}
    },
    "cordova-plugin-network-information": {
        "source": {
            "type": "registry",
            "id": "cordova-plugin-network-information"
        },
        "is_top_level": true,
        "variables": {}
    },
    "cordova-plugin-dialogs": {
        "source": {
            "type": "registry",
            "id": "cordova-plugin-dialogs"
        },
        "is_top_level": true,
        "variables": {}
    },
    "cordova-plugin-splashscreen": {
        "source": {
            "type": "registry",
            "id": "cordova-plugin-splashscreen"
        },
        "is_top_level": true,
        "variables": {}
    },
    "com.microsoft.azure-mobile-services": {
        "source": {
            "type": "registry",
            "id": "com.microsoft.azure-mobile-services"
        },
        "is_top_level": true,
        "variables": {}
    },
    "cordova-plugin-admobpro": {
        "source": {
            "type": "git",
            "url": "https://github.com/floatinghotpot/cordova-admob-pro.git",
            "subdir": "."
        },
        "is_top_level": true,
        "variables": {}
    },
    "cordova-sqlite-storage": {
        "source": {
            "type": "git",
            "url": "https://github.com/litehelpers/Cordova-sqlite-storage.git",
            "subdir": "."
        },
        "is_top_level": true,
        "variables": {}
    }
}